<svg xmlns="http://www.w3.org/2000/svg" xmlns:xlink="http://www.w3.org/1999/xlink" width="1542" height="768" viewBox="0 0 1542 768">
  <metadata><?xpacket begin="﻿" id="W5M0MpCehiHzreSzNTczkc9d"?>
<x:xmpmeta xmlns:x="adobe:ns:meta/" x:xmptk="Adobe XMP Core 5.6-c142 79.160924, 2017/07/13-01:06:39        ">
   <rdf:RDF xmlns:rdf="http://www.w3.org/1999/02/22-rdf-syntax-ns#">
      <rdf:Description rdf:about=""/>
   </rdf:RDF>
</x:xmpmeta>
                                                                                                    
                                                                                                    
                                                                                                    
                                                                                                    
                                                                                                    
                                                                                                    
                                                                                                    
                                                                                                    
                                                                                                    
                                                                                                    
                                                                                                    
                                                                                                    
                                                                                                    
                                                                                                    
                                                                                                    
                                                                                                    
                                                                                                    
                                                                                                    
                                                                                                    
                                                                                                    
                           
<?xpacket end="w"?></metadata>
<defs>
    <style>
      .cls-1, .cls-2, .cls-4 {
        fill-rule: evenodd;
      }

      .cls-1 {
        fill: url(#linear-gradient);
      }

      .cls-2 {
        fill: url(#linear-gradient-2);
      }

      .cls-3 {
        fill: url(#linear-gradient-3);
      }

      .cls-4 {
        fill: url(#linear-gradient-4);
      }
    </style>
    <linearGradient id="linear-gradient" x1="5537.5" y1="3439" x2="5537.5" y2="2890" gradientUnits="userSpaceOnUse">
      <stop offset="0" stop-color="#ff37a3"/>
      <stop offset="1" stop-color="#ff7930"/>
    </linearGradient>
    <linearGradient id="linear-gradient-2" x1="5784.5" y1="3213" x2="5784.5" y2="2898" xlink:href="#linear-gradient"/>
    <linearGradient id="linear-gradient-3" x1="1468" y1="478" x2="1468" y2="370" xlink:href="#linear-gradient"/>
    <linearGradient id="linear-gradient-4" x1="5195" y1="3200" x2="5195" y2="2676" xlink:href="#linear-gradient"/>
  </defs>
  <g id="About">
    <path class="cls-1" d="M5076,3292a38,38,0,1,1-38,38A38,38,0,0,1,5076,3292Zm664-402a38,38,0,1,1-38,38A38,38,0,0,1,5740,2890Zm0,0a38,38,0,1,1-38,38A38,38,0,0,1,5740,2890Zm0,0a38,38,0,1,1-38,38A38,38,0,0,1,5740,2890Zm0,0a38,38,0,1,1-38,38A38,38,0,0,1,5740,2890Zm259,473a38,38,0,1,1-38,38A38,38,0,0,1,5999,3363Z" transform="translate(-4984 -2722)"/>
    <path id="Ellipse_5_copy" data-name="Ellipse 5 copy" class="cls-2" d="M5345,2898a38,38,0,1,1-38,38A38,38,0,0,1,5345,2898Zm0,0a38,38,0,1,1-38,38A38,38,0,0,1,5345,2898Zm0,0a38,38,0,1,1-38,38A38,38,0,0,1,5345,2898Zm0,0a38,38,0,1,1-38,38A38,38,0,0,1,5345,2898Zm-10.5,182a66.5,66.5,0,1,1-66.5,66.5A66.5,66.5,0,0,1,5334.5,3080Zm900-127a66.5,66.5,0,1,1-66.5,66.5A66.5,66.5,0,0,1,6234.5,2953Z" transform="translate(-4984 -2722)"/>
    <circle class="cls-3" cx="1468" cy="424" r="54"/>
    <path class="cls-4" d="M5292,2684l-408,418,98,98,524-524Z" transform="translate(-4984 -2722)"/>
  </g>
</svg>
