<svg xmlns="http://www.w3.org/2000/svg" xmlns:xlink="http://www.w3.org/1999/xlink" width="1366" height="768" viewBox="0 0 1366 768">
  <metadata><?xpacket begin="﻿" id="W5M0MpCehiHzreSzNTczkc9d"?>
<x:xmpmeta xmlns:x="adobe:ns:meta/" x:xmptk="Adobe XMP Core 5.6-c142 79.160924, 2017/07/13-01:06:39        ">
   <rdf:RDF xmlns:rdf="http://www.w3.org/1999/02/22-rdf-syntax-ns#">
      <rdf:Description rdf:about=""/>
   </rdf:RDF>
</x:xmpmeta>
                                                                                                    
                                                                                                    
                                                                                                    
                                                                                                    
                                                                                                    
                                                                                                    
                                                                                                    
                                                                                                    
                                                                                                    
                                                                                                    
                                                                                                    
                                                                                                    
                                                                                                    
                                                                                                    
                                                                                                    
                                                                                                    
                                                                                                    
                                                                                                    
                                                                                                    
                                                                                                    
                           
<?xpacket end="w"?></metadata>
<defs>
    <style>
      .cls-1 {
        fill-rule: evenodd;
        fill: url(#linear-gradient);
      }
    </style>
    <linearGradient id="linear-gradient" x1="5797" y1="2537" x2="5797" y2="2247" gradientUnits="userSpaceOnUse">
      <stop offset="0" stop-color="#20dbc2"/>
      <stop offset="1" stop-color="#7caaef"/>
    </linearGradient>
  </defs>
  <g id="Blue-NoBoobs">
    <path class="cls-1" d="M5269.5,2452a42.5,42.5,0,1,1-42.5,42.5A42.5,42.5,0,0,1,5269.5,2452Zm1032-205a65.5,65.5,0,1,1-65.5,65.5A65.506,65.506,0,0,1,6301.5,2247Z" transform="translate(-4935 -1834)"/>
  </g>
</svg>
