<svg xmlns="http://www.w3.org/2000/svg" xmlns:xlink="http://www.w3.org/1999/xlink" width="1542" height="768" viewBox="0 0 1542 768">
  <metadata><?xpacket begin="﻿" id="W5M0MpCehiHzreSzNTczkc9d"?>
<x:xmpmeta xmlns:x="adobe:ns:meta/" x:xmptk="Adobe XMP Core 5.6-c142 79.160924, 2017/07/13-01:06:39        ">
   <rdf:RDF xmlns:rdf="http://www.w3.org/1999/02/22-rdf-syntax-ns#">
      <rdf:Description rdf:about=""/>
   </rdf:RDF>
</x:xmpmeta>
                                                                                                    
                                                                                                    
                                                                                                    
                                                                                                    
                                                                                                    
                                                                                                    
                                                                                                    
                                                                                                    
                                                                                                    
                                                                                                    
                                                                                                    
                                                                                                    
                                                                                                    
                                                                                                    
                                                                                                    
                                                                                                    
                                                                                                    
                                                                                                    
                                                                                                    
                                                                                                    
                           
<?xpacket end="w"?></metadata>
<defs>
    <style>
      .cls-1, .cls-2, .cls-3, .cls-4, .cls-5, .cls-6, .cls-7 {
        fill-rule: evenodd;
      }

      .cls-1 {
        fill: url(#linear-gradient);
      }

      .cls-2 {
        fill: url(#linear-gradient-2);
      }

      .cls-3 {
        fill: url(#linear-gradient-3);
      }

      .cls-4 {
        fill: url(#linear-gradient-4);
      }

      .cls-5 {
        fill: url(#linear-gradient-5);
      }

      .cls-6 {
        fill: url(#linear-gradient-6);
      }

      .cls-7 {
        fill: url(#linear-gradient-7);
      }
    </style>
    <linearGradient id="linear-gradient" x1="8537" y1="1855" x2="8537" y2="1434" gradientUnits="userSpaceOnUse">
      <stop offset="0" stop-color="#58ffca"/>
      <stop offset="1" stop-color="#3599ff"/>
    </linearGradient>
    <linearGradient id="linear-gradient-2" x1="8221" x2="8221" xlink:href="#linear-gradient"/>
    <linearGradient id="linear-gradient-3" x1="8866" x2="8866" xlink:href="#linear-gradient"/>
    <linearGradient id="linear-gradient-4" x1="9182" x2="9182" xlink:href="#linear-gradient"/>
    <linearGradient id="linear-gradient-5" x1="9511" x2="9511" xlink:href="#linear-gradient"/>
    <linearGradient id="linear-gradient-6" x1="9827" x2="9827" xlink:href="#linear-gradient"/>
    <linearGradient id="linear-gradient-7" x1="9389.765" y1="1630" x2="9389.765" y2="742" xlink:href="#linear-gradient"/>
  </defs>
  <g id="ChangePass_copy" data-name="ChangePass copy">
    <path class="cls-1" d="M8764.99,1855.01l-227.98-227.79-228,227.79V1661.79l228-227.8,227.98,227.8v193.22Z" transform="translate(-8303 -850)"/>
    <path class="cls-2" d="M8448.99,1855.01l-227.98-227.79-228,227.79V1661.79l228-227.8,227.98,227.8v193.22Z" transform="translate(-8303 -850)"/>
    <path class="cls-3" d="M9093.99,1855.01l-227.98-227.79-228,227.79V1661.79l228-227.8,227.98,227.8v193.22Z" transform="translate(-8303 -850)"/>
    <path class="cls-4" d="M9409.99,1855.01l-227.98-227.79-228,227.79V1661.79l228-227.8,227.98,227.8v193.22Z" transform="translate(-8303 -850)"/>
    <path class="cls-5" d="M9738.99,1855.01l-227.98-227.79-228,227.79V1661.79l228-227.8,227.98,227.8v193.22Z" transform="translate(-8303 -850)"/>
    <path class="cls-6" d="M10055,1855.01l-227.99-227.79-228,227.79V1661.79l228-227.8,227.99,227.8v193.22Z" transform="translate(-8303 -850)"/>
    <path class="cls-7" d="M8732,810c14,14,66,260,260,260s504-74,578,0,338,560,338,560l140-588-70-256-388-44s-424,26-494,22S8718,796,8732,810Z" transform="translate(-8303 -850)"/>
  </g>
</svg>
