<svg xmlns="http://www.w3.org/2000/svg" xmlns:xlink="http://www.w3.org/1999/xlink" width="1366" height="768" viewBox="0 0 1366 768">
  <metadata><?xpacket begin="﻿" id="W5M0MpCehiHzreSzNTczkc9d"?>
<x:xmpmeta xmlns:x="adobe:ns:meta/" x:xmptk="Adobe XMP Core 5.6-c142 79.160924, 2017/07/13-01:06:39        ">
   <rdf:RDF xmlns:rdf="http://www.w3.org/1999/02/22-rdf-syntax-ns#">
      <rdf:Description rdf:about=""/>
   </rdf:RDF>
</x:xmpmeta>
                                                                                                    
                                                                                                    
                                                                                                    
                                                                                                    
                                                                                                    
                                                                                                    
                                                                                                    
                                                                                                    
                                                                                                    
                                                                                                    
                                                                                                    
                                                                                                    
                                                                                                    
                                                                                                    
                                                                                                    
                                                                                                    
                                                                                                    
                                                                                                    
                                                                                                    
                                                                                                    
                           
<?xpacket end="w"?></metadata>
<defs>
    <style>
      .cls-1 {
        fill: url(#linear-gradient);
      }

      .cls-2 {
        fill: url(#linear-gradient-2);
      }

      .cls-3 {
        fill: url(#linear-gradient-3);
      }

      .cls-4 {
        fill-rule: evenodd;
        fill: url(#linear-gradient-4);
      }
    </style>
    <linearGradient id="linear-gradient" x1="65" y1="347.5" x2="-66" y2="347.5" gradientUnits="userSpaceOnUse">
      <stop offset="0" stop-color="#20dbc2"/>
      <stop offset="1" stop-color="#7caaef"/>
    </linearGradient>
    <linearGradient id="linear-gradient-2" x1="221" y1="667.5" x2="90" y2="667.5" xlink:href="#linear-gradient"/>
    <linearGradient id="linear-gradient-3" x1="1432" y1="478.5" x2="1301" y2="478.5" xlink:href="#linear-gradient"/>
    <linearGradient id="linear-gradient-4" x1="683" y1="1975" x2="683" y2="1787.94" xlink:href="#linear-gradient"/>
  </defs>
  <g id="Artboard_1" data-name="Artboard 1">
    <circle id="Left" class="cls-1" cx="-0.5" cy="347.5" r="65.5"/>
    <circle id="Middle" class="cls-2" cx="155.5" cy="667.5" r="65.5"/>
    <circle id="Right" class="cls-3" cx="1366.5" cy="478.5" r="65.5"/>
    <path id="bannerTag" class="cls-4" d="M-6,1789H399s135.554,64,209.777,125L683,1975s24.8-26,78.753-61S927.431,1785.5,1053,1788s319,0,319,0Z" transform="translate(0 -1792)"/>
  </g>
</svg>
