<svg xmlns="http://www.w3.org/2000/svg" xmlns:xlink="http://www.w3.org/1999/xlink" width="1542" height="768" viewBox="0 0 1542 768">
  <metadata><?xpacket begin="﻿" id="W5M0MpCehiHzreSzNTczkc9d"?>
<x:xmpmeta xmlns:x="adobe:ns:meta/" x:xmptk="Adobe XMP Core 5.6-c142 79.160924, 2017/07/13-01:06:39        ">
   <rdf:RDF xmlns:rdf="http://www.w3.org/1999/02/22-rdf-syntax-ns#">
      <rdf:Description rdf:about=""/>
   </rdf:RDF>
</x:xmpmeta>
                                                                                                    
                                                                                                    
                                                                                                    
                                                                                                    
                                                                                                    
                                                                                                    
                                                                                                    
                                                                                                    
                                                                                                    
                                                                                                    
                                                                                                    
                                                                                                    
                                                                                                    
                                                                                                    
                                                                                                    
                                                                                                    
                                                                                                    
                                                                                                    
                                                                                                    
                                                                                                    
                           
<?xpacket end="w"?></metadata>
<defs>
    <style>
      .cls-1, .cls-2, .cls-3, .cls-4, .cls-5, .cls-6, .cls-7 {
        fill-rule: evenodd;
      }

      .cls-1 {
        fill: url(#linear-gradient);
      }

      .cls-2 {
        fill: url(#linear-gradient-2);
      }

      .cls-3 {
        fill: url(#linear-gradient-3);
      }

      .cls-4 {
        fill: url(#linear-gradient-4);
      }

      .cls-5 {
        fill: url(#linear-gradient-5);
      }

      .cls-6 {
        fill: url(#linear-gradient-6);
      }

      .cls-7 {
        fill: url(#linear-gradient-7);
      }
    </style>
    <linearGradient id="linear-gradient" x1="6895" y1="1855" x2="6895" y2="1434" gradientUnits="userSpaceOnUse">
      <stop offset="0" stop-color="#58ffca"/>
      <stop offset="1" stop-color="#8b35ff"/>
    </linearGradient>
    <linearGradient id="linear-gradient-2" x1="6579" x2="6579" xlink:href="#linear-gradient"/>
    <linearGradient id="linear-gradient-3" x1="7224" x2="7224" xlink:href="#linear-gradient"/>
    <linearGradient id="linear-gradient-4" x1="7540" x2="7540" xlink:href="#linear-gradient"/>
    <linearGradient id="linear-gradient-5" x1="7869" x2="7869" xlink:href="#linear-gradient"/>
    <linearGradient id="linear-gradient-6" x1="8185" x2="8185" xlink:href="#linear-gradient"/>
    <linearGradient id="linear-gradient-7" x1="7747.765" y1="1630" x2="7747.765" y2="742" xlink:href="#linear-gradient"/>
  </defs>
  <g id="ChangePass">
    <path class="cls-1" d="M7122.99,1855.01l-227.98-227.79-228,227.79V1661.79l228-227.8,227.98,227.8v193.22Z" transform="translate(-6661 -850)"/>
    <path class="cls-2" d="M6806.99,1855.01l-227.98-227.79-228,227.79V1661.79l228-227.8,227.98,227.8v193.22Z" transform="translate(-6661 -850)"/>
    <path class="cls-3" d="M7451.99,1855.01l-227.98-227.79-228,227.79V1661.79l228-227.8,227.98,227.8v193.22Z" transform="translate(-6661 -850)"/>
    <path class="cls-4" d="M7767.99,1855.01l-227.98-227.79-228,227.79V1661.79l228-227.8,227.98,227.8v193.22Z" transform="translate(-6661 -850)"/>
    <path class="cls-5" d="M8096.99,1855.01l-227.98-227.79-228,227.79V1661.79l228-227.8,227.98,227.8v193.22Z" transform="translate(-6661 -850)"/>
    <path class="cls-6" d="M8412.99,1855.01l-227.98-227.79-228,227.79V1661.79l228-227.8,227.98,227.8v193.22Z" transform="translate(-6661 -850)"/>
    <path class="cls-7" d="M7090,810c14,14,66,260,260,260s504-74,578,0,338,560,338,560l140-588-70-256-388-44s-424,26-494,22S7076,796,7090,810Z" transform="translate(-6661 -850)"/>
  </g>
</svg>
